%!PS-Adobe-2.0
%%BoundingBox: 0 0 300 200
%%EndComments

% -----------------------------------------------------------------------------
% Configuration
% -----------------------------------------------------------------------------

/resolution_x 3840 def
/resolution_y 2160 def

% -----------------------------------------------------------------------------
% Words
% -----------------------------------------------------------------------------

/pixel { % x y --
  % draws a single pixel
  1 0 360 arc % radius start-angle end-angle --
} def

/rand_01 { % -- random number in [0,1]
  rand 100 mod 100 div
} def

/norm { % x in [-1,+1] -- x in [0,1]
  1 add 2 div
} def

/xy_to_index { % x y -- y * resolution_x + x
  /y exch def
  /x exch def
  y resolution_x mul x add
} def

/map_to_01 { % val max_val -- val mapped to [0,1]
  /max_val exch def
  /val exch def
  val max_val div
} def

/draw_pixel { % x y --
  % draws a single pixel on the given coordinates

  /y exch def
  /x exch def

  /hue x resolution_x map_to_01 def
  /saturation rand_01 2 div 0.5 add def  % in [0.50, 1.00]
  /brightness rand_01 2 div 0.25 add def % in [0.25, 0.75]

  hue saturation brightness sethsbcolor
  x y pixel fill
} def

% -----------------------------------------------------------------------------
% Main
% -----------------------------------------------------------------------------

<< /PageSize [resolution_x resolution_y] >> setpagedevice

0 1 resolution_x {
  /x exch def
  
  0 1 resolution_y {
    /y exch def
    
    x y draw_pixel

  } for
} for

showpage
quit